\relax 
\gdef \LT@i {\LT@entry 
    {1}{487.8275pt}\LT@entry 
    {1}{54.1975pt}}
\gdef \LT@ii {\LT@entry 
    {1}{487.8275pt}\LT@entry 
    {1}{54.1975pt}}
\@writefile{toc}{\contentsline {section}{\numberline {1}Start with the base:}{1}{}\protected@file@percent }
\@writefile{toc}{\contentsline {section}{\numberline {2}Sides of the bowl}{1}{}\protected@file@percent }
\gdef \LT@iii {\LT@entry 
    {1}{487.8275pt}\LT@entry 
    {1}{54.1975pt}}
\gdef \LT@iv {\LT@entry 
    {1}{487.8275pt}\LT@entry 
    {1}{54.1975pt}}
\@writefile{toc}{\contentsline {section}{\numberline {3}Chain}{2}{}\protected@file@percent }
\@writefile{toc}{\contentsline {section}{\numberline {4}Start the lid}{2}{}\protected@file@percent }
\gdef \LT@v {\LT@entry 
    {1}{487.8275pt}\LT@entry 
    {1}{54.1975pt}}
\@writefile{toc}{\contentsline {section}{\numberline {5}The Charcoal Briquette}{3}{}\protected@file@percent }
\gdef \@abspage@last{3}
